serial_adder/simulation/out.vcd
$date
	Sat Jul 31 08:05:28 2021
$end
$version
	ModelSim Version 2020.1
$end
$timescale
	1ns
$end

$scope module tld_tb $end
$var reg 1 ! t_clk $end
$var reg 3 " t_sliders [2:0] $end
$var wire 1 # t_leds [3] $end
$var wire 1 $ t_leds [2] $end
$var wire 1 % t_leds [1] $end
$var wire 1 & t_leds [0] $end

$scope module UUT $end
$var wire 1 ' i_clk $end
$var wire 1 ( i_sliders [2] $end
$var wire 1 ) i_sliders [1] $end
$var wire 1 * i_sliders [0] $end
$var reg 4 + o_leds [3:0] $end
$var wire 1 , w_leds [3] $end
$var wire 1 - w_leds [2] $end
$var wire 1 . w_leds [1] $end
$var wire 1 / w_leds [0] $end
$var reg 3 0 r_x_data [2:0] $end
$var reg 3 1 r_y_data [2:0] $end
$var reg 1 2 r_internal_reset $end
$var wire 1 3 w_adder_load $end
$var wire 1 4 w_led_load $end
$var wire 1 5 w_carry $end
$var wire 1 6 w_sum [2] $end
$var wire 1 7 w_sum [1] $end
$var wire 1 8 w_sum [0] $end
$upscope $end
$upscope $end
$enddefinitions $end
#0
$dumpvars
0!
b0 "
bx +
b100 0
b0 1
02
x&
x%
x$
x#
0/
0.
0-
0,
13
04
05
08
07
06
0*
0)
0(
0'
$end
#10
1!
1'
03
#20
0!
0'
#30
1!
1'
#40
0!
0'
#50
1!
1'
#60
0!
0'
#70
1!
1'
16
1-
14
#80
0!
0'
#90
1!
1'
b100 +
0&
0%
1$
0#
17
06
1.
0-
04
13
#100
b111 "
1*
1)
1(
b111 1
0!
0'
#110
1!
1'
18
07
1/
0.
03
#120
0!
0'
#130
1!
1'
08
16
0/
1-
#140
0!
0'
#150
1!
1'
17
1.
#160
0!
0'
#170
1!
1'
15
1,
18
06
1/
0-
14
#180
0!
0'
#190
1!
1'
b1011 +
05
0,
1&
1%
0$
1#
07
16
0.
1-
04
13
#200
b1 "
0)
0(
b1 1
0!
0'
#210
1!
1'
08
17
06
0/
1.
0-
03
#220
0!
0'
#230
1!
1'
18
07
16
1/
0.
1-
#240
0!
0'
#250
1!
1'
08
17
06
0/
1.
0-
#260
0!
0'
#270
1!
1'
18
07
16
1/
0.
1-
14
#280
0!
0'
#290
1!
1'
b101 +
0%
1$
0#
08
17
06
0/
1.
0-
04
13
#300
b10 "
0*
1)
b10 1
0!
0'
#310
1!
1'
18
07
1/
0.
03
#320
0!
0'
#330
1!
1'
08
0/
#340
0!
0'
#350
1!
1'
16
1-
#360
0!
0'
#370
1!
1'
17
1.
14
#380
0!
0'
#390
1!
1'
b110 +
0&
1%
18
06
1/
0-
04
13
#400
b100 "
0)
1(
b100 1
0!
0'
#410
1!
1'
07
0.
03
#420
0!
0'
#430
1!
1'
08
0/
#440
0!
0'
#450
1!
1'
#460
0!
0'
#470
1!
1'
15
1,
14
#480
0!
0'
#490
1!
1'
b1000 +
05
0,
0%
0$
1#
16
1-
04
13
#500
b11 "
1*
1)
0(
b11 1
0!
0'
#510
1!
1'
17
06
1.
0-
03
#520
0!
0'
#530
1!
1'
18
07
16
1/
0.
1-
#540
0!
0'
#550
1!
1'
08
17
0/
1.
#560
0!
0'
#570
1!
1'
18
1/
14
#580
0!
0'
#590
1!
1'
b111 +
1&
1%
1$
0#
06
0-
04
13
#600
b110 "
0*
1(
b110 1
0!
0'
#610
1!
1'
07
0.
03
#620
0!
0'
#630
1!
1'
08
0/
#640
0!
0'
#650
1!
1'
16
1-
#660
0!
0'
#670
1!
1'
15
1,
17
06
1.
0-
14
#680
0!
0'
#690
1!
1'
b1010 +
05
0,
0&
0$
1#
18
07
16
1/
0.
1-
04
13
#700
b101 "
1*
0)
b101 1
0!
0'
#710
1!
1'
08
17
06
0/
1.
0-
03
#720
0!
0'
#730
1!
1'
18
07
16
1/
0.
1-
#740
0!
0'
#750
1!
1'
08
17
06
0/
1.
0-
#760
0!
0'
#770
1!
1'
15
1,
18
07
1/
0.
14
#780
0!
0'
#790
1!
1'
b1001 +
05
0,
1&
0%
08
16
0/
1-
04
13
#800
b0 "
0*
0(
b0 1
0!
0'
#810
1!
1'
17
06
1.
0-
03
#820
0!
0'
#830
1!
1'
18
07
1/
0.
#840
0!
0'
#850
1!
1'
08
0/
#860
0!
0'
#870
1!
1'
16
1-
14
#880
0!
0'
#890
1!
1'
b100 +
0&
1$
0#
17
06
1.
0-
04
13
#900
0!
0'
#910
1!
1'
18
07
1/
0.
03
#920
0!
0'
#930
1!
1'
08
0/
#940
0!
0'
#950
1!
1'
#960
0!
0'
#970
1!
1'
16
1-
14
#980
0!
0'
#990
1!
1'
17
06
1.
0-
04
13
